Preliminary analysis
…
pixel_to_mm <- data.frame(participantId = p, 
  pixelToMM = c(3.73, 3.27, 3.27, 5.03, 3.73, 3.25, 3.73, 3.27, 3.73, 3.27)
)

Distance to the x-axis would be the y-coordinate, which would be 410 - pixel.y. Distance to the y-axis would be the x-coordinate, which would be pixel.x - margin.left.

Let’s use Task 2 as an example.

task_df %>% filter(grepl("task2", trialId)) %>% 
  select(participantId, pixel.y, pixel.x) %>% 
  left_join(pixel_to_mm, by = join_by(participantId)) %>% 
  mutate(phy.y = (410 - pixel.y) * pixelToMM / 100, 
         phy.x = (pixel.x - 50) * pixelToMM / 100 )

# A tibble: 100 × 6
   participantId                        pixel.y pixel.x pixelToMM phy.y phy.x
   <chr>                                  <dbl>   <dbl>     <dbl> <dbl> <dbl>
 1 0c671e0c-0be6-4ae5-a78e-638e59d43ddd    313.    408.      3.73  3.63 13.4 
 2 0c671e0c-0be6-4ae5-a78e-638e59d43ddd    206.    384.      3.73  7.62 12.5 
 3 0c671e0c-0be6-4ae5-a78e-638e59d43ddd    270.    321.      3.73  5.23 10.1 
 4 0c671e0c-0be6-4ae5-a78e-638e59d43ddd    198.    404.      3.73  7.89 13.2 
 5 0c671e0c-0be6-4ae5-a78e-638e59d43ddd    312.    348.      3.73  3.64 11.1 
 6 0c671e0c-0be6-4ae5-a78e-638e59d43ddd    174.    380.      3.73  8.79 12.3 
 7 0c671e0c-0be6-4ae5-a78e-638e59d43ddd    277.    390.      3.73  4.97 12.7 
 8 0c671e0c-0be6-4ae5-a78e-638e59d43ddd    247.    259.      3.73  6.08  7.80
 9 0c671e0c-0be6-4ae5-a78e-638e59d43ddd    158.    344.      3.73  9.41 11.0 
10 0c671e0c-0be6-4ae5-a78e-638e59d43ddd    317.    393.      3.73  3.48 12.8 
# ℹ 90 more rows
…
task_df %>% filter(grepl("task2", trialId)) %>% 
  select(participantId, pixel.y, pixel.x) %>% 
  left_join(pixel_to_mm, by = join_by(participantId)) %>% 
  mutate(phy.y = convert_to_physical_y(pixel.y, pixelToMM), 
         phy.x = convert_to_physical_x(pixel.x, pixelToMM)) %>% 
  left_join(vis_distance, by = join_by(participantId)) %>% 
  mutate(va.x = vis_angle(phy.x, dist_to_screen), 
         va.y = vis_angle(phy.y, dist_to_screen))

# A tibble: 100 × 9
   participantId      pixel.y pixel.x pixelToMM phy.y phy.x dist_to_screen  va.x
   <chr>                <dbl>   <dbl>     <dbl> <dbl> <dbl>          <dbl> <dbl>
 1 0c671e0c-0be6-4ae…    313.    408.      3.73  363. 1335.            426  2.01
 2 0c671e0c-0be6-4ae…    206.    384.      3.73  762. 1245.            426  1.94
 3 0c671e0c-0be6-4ae…    270.    321.      3.73  523. 1012.            426  1.74
 4 0c671e0c-0be6-4ae…    198.    404.      3.73  789. 1319.            426  1.99
 5 0c671e0c-0be6-4ae…    312.    348.      3.73  364. 1112.            426  1.83
 6 0c671e0c-0be6-4ae…    174.    380.      3.73  879. 1231.            426  1.93
 7 0c671e0c-0be6-4ae…    277.    390.      3.73  497. 1269.            426  1.96
 8 0c671e0c-0be6-4ae…    247.    259.      3.73  608.  780.            426  1.48
 9 0c671e0c-0be6-4ae…    158.    344.      3.73  941. 1096.            426  1.82
10 0c671e0c-0be6-4ae…    317.    393.      3.73  348. 1281.            426  1.97
# ℹ 90 more rows
# ℹ 1 more variable: va.y <dbl>
…
